…
<img src="man/figures/README-example-1.png" width="100%" />

    #> [1] "Data in draw_panel:"
    #> # A tibble: 120 × 20
    #> # Groups:   x_major, y_major [10]
    #>    x_major y_major x_minor y_minor yend_minor PANEL group      x   xend     y
    #>      <dbl>   <dbl>   <dbl>   <dbl>      <dbl> <fct> <int>  <dbl>  <dbl> <dbl>
    #>  1  -105.     41.2      -1  -0.874     -0.677 1        -1 -107.  -107.   38.5
    #>  2   -96.8    32.8      -1  -0.947     -0.117 1        -1  -98.8  -98.8  30.0
    #>  3   -94.7    39.3      -1  -0.901     -0.598 1        -1  -96.7  -96.7  36.6
    #>  4  -115.     36.1      -1  -1         -0.263 1        -1 -117.  -117.   33.1
    #>  5   -80.1    25.8      -1  -1          0.382 1        -1  -82.1  -82.1  22.8
    #>  6   -83.4    35.7      -1  -1         -0.752 1        -1  -85.4  -85.4  32.7
    #>  7   -74.0    40.8      -1  -1         -0.552 1        -1  -76.0  -76.0  37.8
    #>  8   -78.8    35.9      -1  -1         -0.227 1        -1  -80.8  -80.8  32.9
    #>  9  -118.     34.0      -1  -1          0.506 1        -1 -120.  -120.   31.0
    #> 10  -122.     47.4      -1  -0.902     -0.266 1        -1 -124.  -124.   44.7
    #> # ℹ 110 more rows
    #> # ℹ 10 more variables: yend <dbl>, colour <chr>, linewidth <dbl>,
    #> #   linetype <dbl>, width <dbl>, height <dbl>, alpha <dbl>,
    #> #   global_rescale <lgl>, x_scale <list>, y_scale <list>
