GeomSegmentGlyph • stglpyhs
…
Monthly Temperatures Across the US

The National Oceanica and Atmosphere Administration (NOAA) provides
weather data from stations all over the US. The stations
dataset contains climate variables such as prerciptation, temperature,
and elevation from 10 different weather stations for every day from 2020
to 2023.

stations
#> # A tibble: 43,551 × 12
#>    id     long   lat  elev name  wmo_id date        prcp  tmax  tmin month  year
#>    <chr> <dbl> <dbl> <dbl> <chr> <chr>  <date>     <dbl> <dbl> <dbl> <dbl> <dbl>
#>  1 USC0… -83.4  35.7 1979. MT L… ""     2020-01-01     0  -1.1  -8.9     1  2020
#>  2 USC0… -83.4  35.7 1979. MT L… ""     2020-01-02     0   2.2  -8.9     1  2020
#>  3 USC0… -83.4  35.7 1979. MT L… ""     2020-01-03   356   8.3   1.1     1  2020
#>  4 USC0… -83.4  35.7 1979. MT L… ""     2020-01-04   178   7.8   1.7     1  2020
#>  5 USC0… -83.4  35.7 1979. MT L… ""     2020-01-05     3   1.7 -10.6     1  2020
#>  6 USC0… -83.4  35.7 1979. MT L… ""     2020-01-06     0  -0.6 -10       1  2020
#>  7 USC0… -83.4  35.7 1979. MT L… ""     2020-01-07    51   1.1  -7.2     1  2020
#>  8 USC0… -83.4  35.7 1979. MT L… ""     2020-01-08    76  -1.1  -9.4     1  2020
#>  9 USC0… -83.4  35.7 1979. MT L… ""     2020-01-09     0  -1.1  -8.9     1  2020
#> 10 USC0… -83.4  35.7 1979. MT L… ""     2020-01-10     5   2.8  -2.8     1  2020
#> # ℹ 43,541 more rows
…
